hw2/hw2_1/dump.vcd
$date
	Sun Feb 13 18:48:54 2022
$end
$version
	ModelSim Version 10.7c
$end
$timescale
	1ns
$end

$scope module shifter_hier_bench $end
$var parameter 32 ! OP_WIDTH $end
$var parameter 32 " SHAMT_WIDTH $end
$var parameter 32 # NUM_OPS $end
$var reg 16 $ In [15:0] $end
$var reg 4 % ShAmt [3:0] $end
$var reg 2 & Oper [1:0] $end
$var wire 1 ' Out [15] $end
$var wire 1 ( Out [14] $end
$var wire 1 ) Out [13] $end
$var wire 1 * Out [12] $end
$var wire 1 + Out [11] $end
$var wire 1 , Out [10] $end
$var wire 1 - Out [9] $end
$var wire 1 . Out [8] $end
$var wire 1 / Out [7] $end
$var wire 1 0 Out [6] $end
$var wire 1 1 Out [5] $end
$var wire 1 2 Out [4] $end
$var wire 1 3 Out [3] $end
$var wire 1 4 Out [2] $end
$var wire 1 5 Out [1] $end
$var wire 1 6 Out [0] $end
$var reg 1 7 fail $end
$var reg 32 8 Expected [31:0] $end
$var integer 32 9 idx $end

$scope module DUT $end
$var parameter 32 : OPERAND_WIDTH $end
$var parameter 32 ; SHAMT_WIDTH $end
$var parameter 32 < NUM_OPERATIONS $end
$var wire 1 = In [15] $end
$var wire 1 > In [14] $end
$var wire 1 ? In [13] $end
$var wire 1 @ In [12] $end
$var wire 1 A In [11] $end
$var wire 1 B In [10] $end
$var wire 1 C In [9] $end
$var wire 1 D In [8] $end
$var wire 1 E In [7] $end
$var wire 1 F In [6] $end
$var wire 1 G In [5] $end
$var wire 1 H In [4] $end
$var wire 1 I In [3] $end
$var wire 1 J In [2] $end
$var wire 1 K In [1] $end
$var wire 1 L In [0] $end
$var wire 1 M ShAmt [3] $end
$var wire 1 N ShAmt [2] $end
$var wire 1 O ShAmt [1] $end
$var wire 1 P ShAmt [0] $end
$var wire 1 Q Oper [1] $end
$var wire 1 R Oper [0] $end
$var wire 1 ' Out [15] $end
$var wire 1 ( Out [14] $end
$var wire 1 ) Out [13] $end
$var wire 1 * Out [12] $end
$var wire 1 + Out [11] $end
$var wire 1 , Out [10] $end
$var wire 1 - Out [9] $end
$var wire 1 . Out [8] $end
$var wire 1 / Out [7] $end
$var wire 1 0 Out [6] $end
$var wire 1 1 Out [5] $end
$var wire 1 2 Out [4] $end
$var wire 1 3 Out [3] $end
$var wire 1 4 Out [2] $end
$var wire 1 5 Out [1] $end
$var wire 1 6 Out [0] $end
$var wire 1 S clk $end
$var wire 1 T rst $end
$var wire 1 U err $end

$scope module DUT $end
$var parameter 32 V OPERAND_WIDTH $end
$var parameter 32 W SHAMT_WIDTH $end
$var parameter 32 X NUM_OPERATIONS $end
$var wire 1 = In [15] $end
$var wire 1 > In [14] $end
$var wire 1 ? In [13] $end
$var wire 1 @ In [12] $end
$var wire 1 A In [11] $end
$var wire 1 B In [10] $end
$var wire 1 C In [9] $end
$var wire 1 D In [8] $end
$var wire 1 E In [7] $end
$var wire 1 F In [6] $end
$var wire 1 G In [5] $end
$var wire 1 H In [4] $end
$var wire 1 I In [3] $end
$var wire 1 J In [2] $end
$var wire 1 K In [1] $end
$var wire 1 L In [0] $end
$var wire 1 M ShAmt [3] $end
$var wire 1 N ShAmt [2] $end
$var wire 1 O ShAmt [1] $end
$var wire 1 P ShAmt [0] $end
$var wire 1 Q Oper [1] $end
$var wire 1 R Oper [0] $end
$var wire 1 ' Out [15] $end
$var wire 1 ( Out [14] $end
$var wire 1 ) Out [13] $end
$var wire 1 * Out [12] $end
$var wire 1 + Out [11] $end
$var wire 1 , Out [10] $end
$var wire 1 - Out [9] $end
$var wire 1 . Out [8] $end
$var wire 1 / Out [7] $end
$var wire 1 0 Out [6] $end
$var wire 1 1 Out [5] $end
$var wire 1 2 Out [4] $end
$var wire 1 3 Out [3] $end
$var wire 1 4 Out [2] $end
$var wire 1 5 Out [1] $end
$var wire 1 6 Out [0] $end
$var wire 1 Y r_shift0 [15] $end
$var wire 1 Z r_shift0 [14] $end
$var wire 1 [ r_shift0 [13] $end
$var wire 1 \ r_shift0 [12] $end
$var wire 1 ] r_shift0 [11] $end
$var wire 1 ^ r_shift0 [10] $end
$var wire 1 _ r_shift0 [9] $end
$var wire 1 ` r_shift0 [8] $end
$var wire 1 a r_shift0 [7] $end
$var wire 1 b r_shift0 [6] $end
$var wire 1 c r_shift0 [5] $end
$var wire 1 d r_shift0 [4] $end
$var wire 1 e r_shift0 [3] $end
$var wire 1 f r_shift0 [2] $end
$var wire 1 g r_shift0 [1] $end
$var wire 1 h r_shift0 [0] $end
$var wire 1 i r_shift1 [15] $end
$var wire 1 j r_shift1 [14] $end
$var wire 1 k r_shift1 [13] $end
$var wire 1 l r_shift1 [12] $end
$var wire 1 m r_shift1 [11] $end
$var wire 1 n r_shift1 [10] $end
$var wire 1 o r_shift1 [9] $end
$var wire 1 p r_shift1 [8] $end
$var wire 1 q r_shift1 [7] $end
$var wire 1 r r_shift1 [6] $end
$var wire 1 s r_shift1 [5] $end
$var wire 1 t r_shift1 [4] $end
$var wire 1 u r_shift1 [3] $end
$var wire 1 v r_shift1 [2] $end
$var wire 1 w r_shift1 [1] $end
$var wire 1 x r_shift1 [0] $end
$var wire 1 y r_shift2 [15] $end
$var wire 1 z r_shift2 [14] $end
$var wire 1 { r_shift2 [13] $end
$var wire 1 | r_shift2 [12] $end
$var wire 1 } r_shift2 [11] $end
$var wire 1 ~ r_shift2 [10] $end
$var wire 1 !! r_shift2 [9] $end
$var wire 1 "! r_shift2 [8] $end
$var wire 1 #! r_shift2 [7] $end
$var wire 1 $! r_shift2 [6] $end
$var wire 1 %! r_shift2 [5] $end
$var wire 1 &! r_shift2 [4] $end
$var wire 1 '! r_shift2 [3] $end
$var wire 1 (! r_shift2 [2] $end
$var wire 1 )! r_shift2 [1] $end
$var wire 1 *! r_shift2 [0] $end
$var wire 1 +! r_shift4 [15] $end
$var wire 1 ,! r_shift4 [14] $end
$var wire 1 -! r_shift4 [13] $end
$var wire 1 .! r_shift4 [12] $end
$var wire 1 /! r_shift4 [11] $end
$var wire 1 0! r_shift4 [10] $end
$var wire 1 1! r_shift4 [9] $end
$var wire 1 2! r_shift4 [8] $end
$var wire 1 3! r_shift4 [7] $end
$var wire 1 4! r_shift4 [6] $end
$var wire 1 5! r_shift4 [5] $end
$var wire 1 6! r_shift4 [4] $end
$var wire 1 7! r_shift4 [3] $end
$var wire 1 8! r_shift4 [2] $end
$var wire 1 9! r_shift4 [1] $end
$var wire 1 :! r_shift4 [0] $end
$var wire 1 ;! r_shift8 [15] $end
$var wire 1 <! r_shift8 [14] $end
$var wire 1 =! r_shift8 [13] $end
$var wire 1 >! r_shift8 [12] $end
$var wire 1 ?! r_shift8 [11] $end
$var wire 1 @! r_shift8 [10] $end
$var wire 1 A! r_shift8 [9] $end
$var wire 1 B! r_shift8 [8] $end
$var wire 1 C! r_shift8 [7] $end
$var wire 1 D! r_shift8 [6] $end
$var wire 1 E! r_shift8 [5] $end
$var wire 1 F! r_shift8 [4] $end
$var wire 1 G! r_shift8 [3] $end
$var wire 1 H! r_shift8 [2] $end
$var wire 1 I! r_shift8 [1] $end
$var wire 1 J! r_shift8 [0] $end
$var wire 1 K! l_shift0 [15] $end
$var wire 1 L! l_shift0 [14] $end
$var wire 1 M! l_shift0 [13] $end
$var wire 1 N! l_shift0 [12] $end
$var wire 1 O! l_shift0 [11] $end
$var wire 1 P! l_shift0 [10] $end
$var wire 1 Q! l_shift0 [9] $end
$var wire 1 R! l_shift0 [8] $end
$var wire 1 S! l_shift0 [7] $end
$var wire 1 T! l_shift0 [6] $end
$var wire 1 U! l_shift0 [5] $end
$var wire 1 V! l_shift0 [4] $end
$var wire 1 W! l_shift0 [3] $end
$var wire 1 X! l_shift0 [2] $end
$var wire 1 Y! l_shift0 [1] $end
$var wire 1 Z! l_shift0 [0] $end
$var wire 1 [! l_shift1 [15] $end
$var wire 1 \! l_shift1 [14] $end
$var wire 1 ]! l_shift1 [13] $end
$var wire 1 ^! l_shift1 [12] $end
$var wire 1 _! l_shift1 [11] $end
$var wire 1 `! l_shift1 [10] $end
$var wire 1 a! l_shift1 [9] $end
$var wire 1 b! l_shift1 [8] $end
$var wire 1 c! l_shift1 [7] $end
$var wire 1 d! l_shift1 [6] $end
$var wire 1 e! l_shift1 [5] $end
$var wire 1 f! l_shift1 [4] $end
$var wire 1 g! l_shift1 [3] $end
$var wire 1 h! l_shift1 [2] $end
$var wire 1 i! l_shift1 [1] $end
$var wire 1 j! l_shift1 [0] $end
$var wire 1 k! l_shift2 [15] $end
$var wire 1 l! l_shift2 [14] $end
$var wire 1 m! l_shift2 [13] $end
$var wire 1 n! l_shift2 [12] $end
$var wire 1 o! l_shift2 [11] $end
$var wire 1 p! l_shift2 [10] $end
$var wire 1 q! l_shift2 [9] $end
$var wire 1 r! l_shift2 [8] $end
$var wire 1 s! l_shift2 [7] $end
$var wire 1 t! l_shift2 [6] $end
$var wire 1 u! l_shift2 [5] $end
$var wire 1 v! l_shift2 [4] $end
$var wire 1 w! l_shift2 [3] $end
$var wire 1 x! l_shift2 [2] $end
$var wire 1 y! l_shift2 [1] $end
$var wire 1 z! l_shift2 [0] $end
$var wire 1 {! l_shift4 [15] $end
$var wire 1 |! l_shift4 [14] $end
$var wire 1 }! l_shift4 [13] $end
$var wire 1 ~! l_shift4 [12] $end
$var wire 1 !" l_shift4 [11] $end
$var wire 1 "" l_shift4 [10] $end
$var wire 1 #" l_shift4 [9] $end
$var wire 1 $" l_shift4 [8] $end
$var wire 1 %" l_shift4 [7] $end
$var wire 1 &" l_shift4 [6] $end
$var wire 1 '" l_shift4 [5] $end
$var wire 1 (" l_shift4 [4] $end
$var wire 1 )" l_shift4 [3] $end
$var wire 1 *" l_shift4 [2] $end
$var wire 1 +" l_shift4 [1] $end
$var wire 1 ," l_shift4 [0] $end
$var wire 1 -" l_shift8 [15] $end
$var wire 1 ." l_shift8 [14] $end
$var wire 1 /" l_shift8 [13] $end
$var wire 1 0" l_shift8 [12] $end
$var wire 1 1" l_shift8 [11] $end
$var wire 1 2" l_shift8 [10] $end
$var wire 1 3" l_shift8 [9] $end
$var wire 1 4" l_shift8 [8] $end
$var wire 1 5" l_shift8 [7] $end
$var wire 1 6" l_shift8 [6] $end
$var wire 1 7" l_shift8 [5] $end
$var wire 1 8" l_shift8 [4] $end
$var wire 1 9" l_shift8 [3] $end
$var wire 1 :" l_shift8 [2] $end
$var wire 1 ;" l_shift8 [1] $end
$var wire 1 <" l_shift8 [0] $end
$upscope $end

$scope module c0 $end
$var reg 1 =" clk $end
$var reg 1 >" rst $end
$var wire 1 U err $end
$var integer 32 ?" cycle_count $end
$upscope $end
$upscope $end
$upscope $end
$enddefinitions $end
#0
$dumpvars
b11010100100100 $
b1 %
b1 &
07
bx 8
1="
1>"
b10000 !
b100 "
b10 #
b10000 :
b100 ;
b10 <
b10000 V
b100 W
b10 X
bx 9
b1 ?"
06
05
04
13
02
01
10
0/
0.
1-
0,
1+
0*
1)
1(
0'
1S
1T
0U
0h
0g
1f
0e
0d
1c
0b
0a
1`
0_
1^
0]
1\
1[
0Z
0Y
0x
1w
0v
0u
1t
0s
0r
1q
0p
1o
0n
1m
1l
0k
0j
0i
0*!
1)!
0(!
0'!
1&!
0%!
0$!
1#!
0"!
1!!
0~
1}
1|
0{
0z
0y
0:!
19!
08!
07!
16!
05!
04!
13!
02!
11!
00!
1/!
1.!
0-!
0,!
0+!
0J!
1I!
0H!
0G!
1F!
0E!
0D!
1C!
0B!
1A!
0@!
1?!
1>!
0=!
0<!
0;!
0Z!
0Y!
1X!
0W!
0V!
1U!
0T!
0S!
1R!
0Q!
1P!
0O!
1N!
1M!
0L!
0K!
0j!
0i!
0h!
1g!
0f!
0e!
1d!
0c!
0b!
1a!
0`!
1_!
0^!
1]!
1\!
0[!
0z!
0y!
0x!
1w!
0v!
0u!
1t!
0s!
0r!
1q!
0p!
1o!
0n!
1m!
1l!
0k!
0,"
0+"
0*"
1)"
0("
0'"
1&"
0%"
0$"
1#"
0""
1!"
0~!
1}!
1|!
0{!
0<"
0;"
0:"
19"
08"
07"
16"
05"
04"
13"
02"
11"
00"
1/"
1."
0-"
1R
0Q
1P
0O
0N
0M
0L
0K
1J
0I
0H
1G
0F
0E
1D
0C
1B
0A
1@
1?
0>
0=
$end
#50
0="
0S
b110101001001000 8
#100
1="
1S
b101011001100011 $
b1101 %
b10 ?"
1N
1M
1L
1K
0J
1F
0D
1C
0?
1>
1h
1g
0f
1b
0`
1_
0[
1Z
1Z!
1Y!
0X!
1T!
0R!
1Q!
0M!
1L!
1G!
0C!
0A!
0?!
0>!
09"
06"
03"
0/"
1:!
09!
17!
06!
15!
12!
01!
0/!
0.!
0)"
0&"
1%"
0#"
1""
0!"
0|!
1{!
01"
0."
1-"
1J!
0I!
0G!
0F!
03
00
0-
0)
1i!
1h!
0g!
1c!
0a!
1`!
0\!
1[!
1x
0w
1s
0q
1p
0l
1k
1*!
0)!
1%!
0#!
1"!
0|
1{
1y!
1x!
0w!
1s!
0q!
1p!
0l!
1k!
0+
0(
1'
1'"
1&"
0%"
1!"
0}!
1|!
19!
07!
16!
02!
11!
0J!
1I!
1/"
1."
0-"
1)
1(
0'
#150
0="
0S
b1010110011000110000000000000 8
#200
1="
1S
b1000010001100101 $
b10 %
b11 ?"
0P
1O
0N
0M
0K
1J
0C
0@
0>
1=
0g
1f
0_
0\
0Z
1Y
0Y!
1X!
0Q!
0N!
0L!
1K!
1J!
1F!
1E!
1C!
1A!
17"
16"
12"
11"
0/"
1-"
09!
03!
12!
1/!
1-!
1+"
1*"
0'"
1%"
1}!
0|!
0*!
1(!
1'!
0&!
0%!
1$!
1#!
0"!
0{
0y!
0x!
1w!
1v!
0t!
0s!
1r!
1q!
0p!
0o!
1n!
1w
0t
1r
0p
1n
0m
1l
0k
1j
1j!
0h!
1e!
0c!
1a!
0_!
1^!
0]!
1\!
0[!
1x!
0v!
1s!
0q!
1o!
0m!
1l!
0k!
0(!
1&!
0$!
1"!
0!!
1~
0}
1|
0+"
0*"
1)"
1("
0&"
0%"
1$"
1#"
0""
0!"
1~!
0:!
18!
17!
06!
05!
14!
13!
02!
0-!
1;"
1:"
07"
15"
1/"
0."
0I!
0C!
1B!
1?!
1=!
11
10
1,
1+
0)
1'
0i!
1h!
0a!
0^!
0\!
1[!
0w
1v
0o
0l
0j
1i
1*!
0#!
0~
0|
1{
0w!
1v!
0o!
0l!
15
14
01
1/
1)
0(
0J!
1H!
1G!
0F!
0E!
1D!
1C!
0B!
0=!
0;"
0:"
19"
18"
06"
05"
14"
13"
02"
01"
10"
08!
16!
04!
12!
01!
10!
0/!
1.!
1*"
0("
1%"
0#"
1!"
0}!
1|!
0{!
1:"
08"
15"
03"
11"
0/"
1."
0-"
0H!
1F!
0D!
1B!
0A!
1@!
0?!
1>!
05
04
13
12
00
0/
1.
1-
0,
0+
1*
0)"
1("
0!"
0|!
1:!
03!
00!
0.!
1-!
1J!
0C!
0@!
0>!
1=!
09"
18"
01"
0."
14
02
1/
0-
1+
0)
1(
0'
03
12
0+
0(
#201
0>"
0T
#250
0="
0S
b100001000110010100 8
#300
1="
1S
b1100110100001101 $
b110 %
b100 ?"
1N
1I
0G
0F
1D
1A
1>
1e
0c
0b
1`
1]
1Z
1W!
0U!
0T!
1R!
1O!
1L!
07!
02!
11!
0-!
0*"
0("
1&"
0%"
1!"
0:"
08"
16"
05"
11"
0G!
0B!
1A!
0=!
1g!
0e!
0d!
1b!
1_!
1\!
1u
0s
0r
1p
1m
1j
1)!
0'!
0&!
1$!
1!!
1|
1u!
0s!
0r!
1p!
1m!
04
02
10
0/
1+
1#"
0!"
0~!
1|!
0:!
18!
15!
12!
0J!
1H!
1E!
1B!
13"
01"
00"
1."
1-
0+
0*
1(
#350
0="
0S
b1100110100001101000000 8
#400
1="
1S
b101011111101101 $
b1100 %
b101 ?"
0O
1M
1G
1F
1E
1C
0A
1@
0=
1c
1b
1a
1_
0]
1\
0Y
1U!
1T!
1S!
1Q!
0O!
1N!
0K!
1J!
1I!
0H!
0F!
0E!
0B!
0A!
06"
04"
03"
0)!
1(!
1'!
0$!
0!!
1~
1}
0|
0{
1z
1y
1z!
1w!
0v!
0u!
1r!
1o!
0n!
0m!
1l!
1k!
1("
1%"
0$"
0#"
1~!
1{!
08!
05!
14!
13!
02!
01!
10!
1/!
00
0.
0-
1e!
1d!
1c!
1a!
0_!
1^!
0[!
1s
1r
1q
1o
0m
1l
0i
1%!
1$!
1#!
1!!
0}
1|
0y
1u!
1t!
1s!
1q!
0o!
1n!
0k!
0J!
0I!
1H!
1G!
10"
1-"
1*
1'
1#"
1""
1!"
1}!
0{!
19!
18!
17!
15!
03!
12!
0/!
1J!
0G!
#450
0="
0S
b101011111101101000000000000 8
#500
1="
1S
b10010011000110 $
b101 %
b10 &
b110 ?"
0R
1Q
1P
0M
0L
1K
0I
0G
0D
0C
0@
1?
0>
0h
1g
0e
0c
0`
0_
0\
1[
0Z
0Z!
1Y!
0W!
0U!
0R!
0Q!
0N!
1M!
0L!
16
14
0*
0(
0'
0x
1w
0u
1t
0n
1m
0l
1k
0j
0J!
1I!
1G!
1F!
1E!
1D!
1B!
1@!
0j!
1i!
0h!
1f!
0e!
1_!
0^!
1]!
0\!
1[!
1,"
1*"
18"
16"
15"
13"
12"
11"
1/"
0-"
1<"
1:"
0z!
1y!
0x!
1v!
0u!
1o!
0n!
1m!
0l!
1k!
06
15
13
12
11
10
1.
1,
0*!
1)!
0'!
1&!
0~
1}
0|
1{
0z
0i!
1h!
0f!
0d!
0a!
0`!
0]!
1\!
0[!
1x
0v
0t
0q
0p
0m
1l
0k
1*!
0(!
0&!
0#!
0"!
0}
1|
0{
0y!
1x!
0v!
0t!
0q!
0p!
0m!
1l!
0k!
1:!
04!
13!
02!
11!
00!
0,"
1+"
0*"
1)"
0("
1'"
0&"
1$"
0#"
1{!
0<"
1;"
0:"
19"
08"
17"
06"
14"
03"
1-"
1J!
0D!
1C!
0B!
1A!
0@!
0+"
1*"
0)"
0'"
1&"
0$"
0""
0}!
0|!
0:!
07!
06!
03!
12!
01!
0J!
0G!
0F!
0C!
1B!
0A!
0;"
1:"
09"
07"
16"
04"
02"
0/"
0."
16
00
1/
0.
1-
0,
06
03
02
0/
1.
0-
#550
0="
0S
b11111 9
b11110 9
b11101 9
b11100 9
b11011 9
b11010 9
b1011111101101000000000000 8
b11001 9
b11000 9
b11111101101000000000000 8
b10111 9
b10110 9
b1111101101000000000000 8
b10101 9
b111101101000000000000 8
b10100 9
b11101101000000000000 8
b10011 9
b1101101000000000000 8
b10010 9
b101101000000000000 8
b10001 9
b1101000000000000 8
b10000 9
b1111 9
b10010011000110 8
b100100110 8
#600
1="
1S
b1111011111100101 $
b111 %
b111 ?"
1O
1L
0K
1G
1D
1C
1@
1>
1=
1h
0g
1c
1`
1_
1\
1Z
1Y
1Z!
0Y!
1U!
1R!
1Q!
1N!
1L!
1K!
0*!
0)!
1'!
1&!
0%!
0$!
1#!
0!!
1~
0|
1z!
0x!
0w!
1v!
1u!
0s!
0r!
1q!
1p!
0o!
1m!
0l!
1+"
0*"
1("
0&"
0%"
1$"
1#"
0!"
0~!
1}!
1|!
0{!
1:!
09!
08!
17!
05!
14!
02!
1j!
1i!
0h!
1d!
1a!
1`!
1]!
1[!
0x
1t
1q
1p
1m
1k
1j
1i
1(!
1%!
1$!
1!!
1}
1|
1{
1z
1y
1y!
1x!
1w!
0v!
1r!
1o!
1n!
1k!
1J!
0I!
0H!
1G!
0E!
1D!
0B!
1;"
0:"
18"
06"
05"
14"
13"
01"
00"
1/"
1."
0-"
16
05
04
13
01
10
0.
1,"
1)"
1'"
1&"
1%"
0$"
1~!
1{!
19!
18!
15!
13!
12!
11!
10!
1/!
1.!
1-!
1,!
1+!
1I!
1H!
1E!
1C!
1B!
1A!
1@!
1?!
1>!
1=!
1<!
1;!
1<"
19"
17"
16"
15"
04"
10"
1-"
15
14
11
1/
1.
1-
1,
1+
1*
1)
1(
1'
#650
0="
0S
b11111 9
b10000000000000000000000100100110 8
b11110 9
b11000000000000000000000100100110 8
b11101 9
b11100000000000000000000100100110 8
b11100 9
b11110000000000000000000100100110 8
b11011 9
b11111000000000000000000100100110 8
b11010 9
b11111100000000000000000100100110 8
b11001 9
b11111110000000000000000100100110 8
b11000 9
b11111111000000000000000100100110 8
b10111 9
b11111111100000000000000100100110 8
b10110 9
b11111111110000000000000100100110 8
b10101 9
b11111111111000000000000100100110 8
b10100 9
b11111111111100000000000100100110 8
b10011 9
b11111111111110000000000100100110 8
b10010 9
b11111111111111000000000100100110 8
b10001 9
b11111111111111100000000100100110 8
b10000 9
b11111111111111110000000100100110 8
b1111 9
b11111111111111111111011111100101 8
b11111111111111111111111111101111 8
#700
1="
1S
b1101101110001111 $
b10 %
b1000 ?"
0P
0N
1K
1I
0G
0F
0B
1A
0?
1g
1e
0c
0b
0^
1]
0[
1Y!
1W!
0U!
0T!
0P!
1O!
0M!
0:!
09!
16!
02!
1*"
0("
0&"
0%"
1$"
1""
1!"
0|!
1x
0w
1v
0t
1n
0m
0i!
1h!
0g!
1e!
0_!
1^!
0w!
1v!
0u!
1s!
0m!
1l!
1*!
0(!
1"!
0!!
1:"
08"
06"
05"
14"
12"
11"
0."
0J!
0I!
1F!
0B!
1i!
1g!
0e!
0d!
0`!
1_!
0]!
1w
1u
0s
0r
0n
1m
0k
1)!
0'!
0&!
0"!
1!!
0}
1w!
1u!
0s!
0r!
0n!
1m!
0k!
06
05
12
0.
1:!
08!
12!
01!
0)"
1("
0'"
1%"
0}!
1|!
09"
18"
07"
15"
0/"
1."
1J!
0H!
1B!
0A!
1)"
1'"
0%"
0$"
0~!
1}!
0{!
19!
07!
06!
02!
11!
0/!
1I!
0G!
0F!
0B!
1A!
0?!
19"
17"
05"
04"
00"
1/"
0-"
16
04
1.
0-
15
03
02
0.
1-
0+
#750
0="
0S
b11111 9
b11110 9
b11101 9
b11100 9
b11011 9
b11010 9
b11001 9
b11000 9
b10111 9
b10110 9
b10101 9
b10100 9
b10011 9
b10010 9
b10001 9
b10000 9
b1111 9
b11111111111111111101101110001111 8
b11111111111111111111011011100011 8
#800
1="
1S
b111101011101000 $
b101 %
b0 &
b1001 ?"
0Q
1P
0O
1N
0L
0K
0J
1G
1F
0D
1?
0=
0h
0g
0f
1c
1b
0`
1[
0Y
0Z!
0Y!
0X!
1U!
1T!
0R!
1M!
0K!
0:!
18!
17!
03!
12!
1/!
0,"
0)"
1&"
1%"
1$"
0""
0!"
1{!
1(!
1'!
0%!
0$!
1"!
0~
1}
0{
0v!
0u!
1s!
1r!
0p!
1n!
0m!
1k!
0u
1r
0o
1n
0l
1k
1f!
0c!
1`!
0_!
1]!
0\!
14
13
12
00
0/
1+
0*
0'
1v!
0s!
1p!
0o!
1m!
0l!
0'!
1$!
0!!
1~
0|
1{
1,"
0+"
1)"
0$"
0#"
1!"
1~!
0|!
09!
08!
16!
04!
13!
01!
0<"
09"
16"
15"
14"
02"
01"
1-"
0J!
1H!
1G!
0C!
1B!
1?!
0j!
0i!
0h!
0g!
1d!
1c!
0a!
1\!
0x
0w
1t
1s
0q
1l
0j
0i
0*!
0)!
1&!
1%!
0#!
1|
0z
0y
0z!
0y!
0x!
0w!
1t!
1s!
0q!
1l!
06
03
10
1/
1.
0,
0+
1'
0I!
0H!
1F!
0D!
1C!
0A!
1<"
0;"
19"
04"
03"
11"
10"
0."
18!
05!
14!
02!
11!
1+"
0*"
1$"
0!"
1|!
0{!
1;"
0:"
14"
01"
1."
0-"
1H!
0E!
1D!
0B!
1A!
16
05
13
0.
0-
1+
1*
0(
1*"
0("
0'"
0&"
0%"
1""
1!"
0}!
1:!
19!
07!
12!
00!
0/!
0.!
0-!
0,!
0+!
1J!
1I!
0G!
1B!
0@!
0?!
0>!
0=!
0<!
0;!
1:"
08"
07"
06"
05"
12"
11"
0/"
15
04
1.
0+
1(
0'
14
02
01
00
0/
1,
1+
0)
#850
0="
0S
b11110101110100001111 8
#900
1="
1S
b10100010111101 $
b1101 %
b1 &
b1010 ?"
1R
1M
1L
1J
1H
0F
0C
0@
0>
1h
1f
1d
0b
0_
0\
0Z
1Z!
1X!
1V!
0T!
0Q!
0N!
0L!
0H!
0F!
0D!
0C!
0B!
0A!
0,"
0+"
0*"
0)"
0<"
0;"
0:"
09"
13"
00"
0."
04"
03"
02"
01"
06
05
04
03
1-
0*
0(
1i!
1g!
1e!
0c!
0`!
0]!
0[!
1w
1u
0s
0p
0m
0k
1)!
1'!
0%!
0"!
0}
0{
1y!
1w!
1u!
0s!
0p!
0m!
0k!
0.
0-
0,
0+
1'"
1%"
1#"
0!"
0|!
09!
06!
03!
01!
0I!
1/"
1-"
1)
1'
#950
0="
0S
b101000101111010000000000000 8
#1000
1="
1S
b110001001100011 $
b1010 %
b0 &
b1011 ?"
0R
0P
1O
0N
1K
0J
0I
0H
1F
0E
1C
0A
1>
1g
0f
0e
0d
1b
0a
1_
0]
1Z
1Y!
0X!
0W!
0V!
1T!
0S!
1Q!
0O!
1L!
1x
0w
1s
0r
1q
0n
1m
0l
1k
1*!
0'!
0$!
1"!
0|
0:!
19!
17!
16!
02!
10!
1.!
1j!
0i!
1h!
0d!
1c!
0b!
1_!
0^!
1]!
0\!
1z!
0y!
0v!
1s!
1p!
0n!
1+"
1)"
1("
1&"
0%"
0#"
0""
1|!
1<"
1;"
1:"
18"
16
15
14
12
0;"
0:"
16"
13"
11"
10"
1."
0-"
1,"
0+"
0("
1%"
1""
0~!
0z!
1x!
0w!
1v!
0r!
1q!
0p!
1m!
0l!
1k!
0J!
1H!
1F!
1:!
07!
04!
12!
0.!
1'!
0&!
1%!
0"!
1!!
0~
1}
1i!
0h!
0g!
0f!
1d!
0c!
1a!
0_!
1\!
1w
0v
0u
0t
1r
0q
1o
0m
1j
0*!
0)!
0(!
1&!
0%!
1#!
0!!
1|
1z!
1w!
0v!
0u!
0t!
1r!
0q!
1o!
0m!
17!
06!
15!
02!
11!
00!
1/!
1J!
0F!
0,"
1*"
0)"
1("
0$"
1#"
0""
1}!
0|!
1{!
1:"
08"
14"
03"
00"
1-"
05
04
10
1-
1+
1*
1(
0'
0<"
1;"
0:"
17"
06"
15"
04"
12"
01"
10"
14
02
1.
0-
0*
1'
0J!
1I!
0H!
1G!
1,"
1)"
0("
0'"
0&"
1$"
0#"
1!"
0}!
0:!
09!
08!
16!
05!
13!
01!
1.!
0I!
1F!
1<"
0;"
19"
07"
14"
11"
00"
0/"
0."
06
15
04
11
00
1/
0.
1,
0+
1*
16
05
13
01
1.
1+
0*
0)
0(
#1050
0="
0S
b1100010011000110110001001 8
#1100
1="
1S
b10000100100000 $
b1 &
b1100 ?"
1R
0L
0K
0F
1D
0C
0>
0h
0g
0b
1`
0_
0Z
0Z!
0Y!
0T!
1R!
0Q!
0L!
0z!
0<"
09"
05"
06
03
0/
0,"
0j!
0i!
0d!
1b!
0a!
0\!
0x
0w
0r
1p
0o
0j
0&!
1$!
0#!
0|
0x!
0w!
0r!
1p!
0o!
04"
0.
0*"
0)"
0$"
1""
0!"
06!
14!
03!
0.!
0F!
02"
01"
0,
0+
#1150
0="
0S
b100001001000000000000000 8
#1200
1="
1S
b11111010010110 $
b11 %
b1101 ?"
1P
0M
1K
1J
1H
0G
1E
0D
1C
1B
1A
1@
1g
1f
1d
0c
1a
0`
1_
1^
1]
1\
1Y!
1X!
1V!
0U!
1S!
0R!
1Q!
1P!
1O!
1N!
1D!
1?!
15"
12"
1t
0s
1q
0p
1l
0k
0e!
1d!
0b!
1a!
0]!
1\!
0s!
1r!
0p!
1o!
0k!
1(!
0'!
1%!
0$!
1~
0}
1/
1,
1h!
1g!
1e!
0d!
1b!
0a!
1`!
1_!
1^!
1]!
1x
1w
1u
0t
1r
0q
1p
1o
1n
1m
1)!
0(!
1&!
0%!
1$!
1#!
1"!
1!!
1v!
1u!
1s!
0r!
1p!
0o!
1n!
1m!
1l!
1k!
18!
07!
15!
04!
10!
0/!
0%"
1$"
0""
1!"
0{!
05"
14"
02"
11"
0-"
1H!
0G!
1E!
0D!
1@!
0?!
1("
1'"
1%"
0$"
1""
0!"
1~!
1}!
1|!
1{!
19!
08!
16!
05!
14!
13!
12!
11!
1I!
0H!
1F!
0E!
1D!
1C!
1B!
1A!
18"
17"
15"
04"
12"
01"
10"
1/"
1."
1-"
0/
1.
0,
1+
0'
12
11
1/
0.
1,
0+
1*
1)
1(
1'
#1250
0="
0S
b11111010010110000 8
#1300
1="
1S
b1101011001010011 $
b1011 %
b1110 ?"
1M
1L
0J
1F
0E
0A
0?
1>
1=
1h
0f
1b
0a
0]
0[
1Z
1Y
1Z!
0X!
1T!
0S!
0O!
0M!
1L!
1K!
1J!
1H!
0F!
0D!
0C!
0B!
0A!
0@!
08"
07"
05"
02"
0."
02
01
0/
0,
0(
1i!
0g!
1c!
0b!
0^!
0\!
1[!
0w
1s
0r
0n
0l
1k
1j
1'!
0&!
0"!
0~
1}
1|
1w!
0u!
1q!
0p!
0l!
1)"
0'"
1#"
0""
0|!
17!
06!
02!
00!
1/!
1.!
0J!
0H!
1G!
1F!
11"
0/"
1+
0)
#1350
0="
0S
b110101100101001100000000000 8
