hw1/hw1_2/dump.vcd
$date
	Mon Feb 14 00:45:43 2022
$end
$version
	ModelSim Version 10.7c
$end
$timescale
	1ns
$end

$scope module cla_4b_bench $end
$var reg 5 ! A [4:0] $end
$var reg 5 " B [4:0] $end
$var reg 5 # Sumcalc [4:0] $end
$var reg 1 $ C_in $end
$var wire 1 % SUM [3] $end
$var wire 1 & SUM [2] $end
$var wire 1 ' SUM [1] $end
$var wire 1 ( SUM [0] $end
$var wire 1 ) CO $end
$var wire 1 * clk $end
$var wire 1 + rst $end
$var wire 1 , err $end

$scope module my_clkrst $end
$var reg 1 - clk $end
$var reg 1 . rst $end
$var wire 1 , err $end
$var integer 32 / cycle_count $end
$upscope $end

$scope module DUT $end
$var parameter 32 0 N $end
$var wire 1 % sum [3] $end
$var wire 1 & sum [2] $end
$var wire 1 ' sum [1] $end
$var wire 1 ( sum [0] $end
$var wire 1 ) c_out $end
$var wire 1 1 a [3] $end
$var wire 1 2 a [2] $end
$var wire 1 3 a [1] $end
$var wire 1 4 a [0] $end
$var wire 1 5 b [3] $end
$var wire 1 6 b [2] $end
$var wire 1 7 b [1] $end
$var wire 1 8 b [0] $end
$var wire 1 9 c_in $end
$var wire 1 : c0 $end
$var wire 1 ; c1 $end
$var wire 1 < c2 $end
$var wire 1 = c3 $end
$var wire 1 > g [3] $end
$var wire 1 ? g [2] $end
$var wire 1 @ g [1] $end
$var wire 1 A g [0] $end
$var wire 1 B p [3] $end
$var wire 1 C p [2] $end
$var wire 1 D p [1] $end
$var wire 1 E p [0] $end
$var wire 1 F c4 $end

$scope module fa1 $end
$var wire 1 ( s $end
$var wire 1 G c_out $end
$var wire 1 4 a $end
$var wire 1 8 b $end
$var wire 1 : c_in $end
$var wire 1 H n1 $end
$var wire 1 I n2 $end
$var wire 1 J n3 $end

$scope module XO1 $end
$var wire 1 H out $end
$var wire 1 4 in1 $end
$var wire 1 8 in2 $end
$upscope $end

$scope module XO2 $end
$var wire 1 ( out $end
$var wire 1 H in1 $end
$var wire 1 : in2 $end
$upscope $end

$scope module NA1 $end
$var wire 1 I out $end
$var wire 1 H in1 $end
$var wire 1 : in2 $end
$upscope $end

$scope module NA2 $end
$var wire 1 J out $end
$var wire 1 4 in1 $end
$var wire 1 8 in2 $end
$upscope $end

$scope module NA3 $end
$var wire 1 G out $end
$var wire 1 I in1 $end
$var wire 1 J in2 $end
$upscope $end
$upscope $end

$scope module fa2 $end
$var wire 1 ' s $end
$var wire 1 K c_out $end
$var wire 1 3 a $end
$var wire 1 7 b $end
$var wire 1 ; c_in $end
$var wire 1 L n1 $end
$var wire 1 M n2 $end
$var wire 1 N n3 $end

$scope module XO1 $end
$var wire 1 L out $end
$var wire 1 3 in1 $end
$var wire 1 7 in2 $end
$upscope $end

$scope module XO2 $end
$var wire 1 ' out $end
$var wire 1 L in1 $end
$var wire 1 ; in2 $end
$upscope $end

$scope module NA1 $end
$var wire 1 M out $end
$var wire 1 L in1 $end
$var wire 1 ; in2 $end
$upscope $end

$scope module NA2 $end
$var wire 1 N out $end
$var wire 1 3 in1 $end
$var wire 1 7 in2 $end
$upscope $end

$scope module NA3 $end
$var wire 1 K out $end
$var wire 1 M in1 $end
$var wire 1 N in2 $end
$upscope $end
$upscope $end

$scope module fa3 $end
$var wire 1 & s $end
$var wire 1 O c_out $end
$var wire 1 2 a $end
$var wire 1 6 b $end
$var wire 1 < c_in $end
$var wire 1 P n1 $end
$var wire 1 Q n2 $end
$var wire 1 R n3 $end

$scope module XO1 $end
$var wire 1 P out $end
$var wire 1 2 in1 $end
$var wire 1 6 in2 $end
$upscope $end

$scope module XO2 $end
$var wire 1 & out $end
$var wire 1 P in1 $end
$var wire 1 < in2 $end
$upscope $end

$scope module NA1 $end
$var wire 1 Q out $end
$var wire 1 P in1 $end
$var wire 1 < in2 $end
$upscope $end

$scope module NA2 $end
$var wire 1 R out $end
$var wire 1 2 in1 $end
$var wire 1 6 in2 $end
$upscope $end

$scope module NA3 $end
$var wire 1 O out $end
$var wire 1 Q in1 $end
$var wire 1 R in2 $end
$upscope $end
$upscope $end

$scope module fa4 $end
$var wire 1 % s $end
$var wire 1 S c_out $end
$var wire 1 1 a $end
$var wire 1 5 b $end
$var wire 1 = c_in $end
$var wire 1 T n1 $end
$var wire 1 U n2 $end
$var wire 1 V n3 $end

$scope module XO1 $end
$var wire 1 T out $end
$var wire 1 1 in1 $end
$var wire 1 5 in2 $end
$upscope $end

$scope module XO2 $end
$var wire 1 % out $end
$var wire 1 T in1 $end
$var wire 1 = in2 $end
$upscope $end

$scope module NA1 $end
$var wire 1 U out $end
$var wire 1 T in1 $end
$var wire 1 = in2 $end
$upscope $end

$scope module NA2 $end
$var wire 1 V out $end
$var wire 1 1 in1 $end
$var wire 1 5 in2 $end
$upscope $end

$scope module NA3 $end
$var wire 1 S out $end
$var wire 1 U in1 $end
$var wire 1 V in2 $end
$upscope $end
$upscope $end
$upscope $end
$upscope $end
$enddefinitions $end
#0
$dumpvars
b100 !
b1 "
bx #
1$
1-
1.
b100 0
b1 /
0(
1'
1&
0%
0)
1*
1+
z,
1:
1;
0<
0=
0A
0@
0?
0>
1E
0D
1C
0B
1H
0I
1J
0L
1M
1N
1P
1Q
1R
0T
1U
1V
0F
19
18
07
06
05
04
03
12
01
1G
0K
0O
0S
$end
#50
0-
0*
b110 #
#100
1-
1*
b11 !
b1101 "
b10 /
16
15
14
13
02
1L
1D
0H
0J
1A
1T
1B
1%
1(
1I
1<
1=
0'
0M
1K
0%
0U
0&
0Q
1O
1S
1F
1)
#150
0-
0*
b10001 #
#200
1-
1*
b101 !
b10 "
b11 /
08
17
06
05
03
12
0T
0B
1H
1J
0A
0G
0(
0I
1%
1U
0S
1G
0F
0)
#201
0.
0+
#250
0-
0*
b1000 #
#300
1-
1*
b1101 !
b110 "
b100 /
16
11
1T
1B
0P
0R
1?
1&
1Q
0%
0U
1S
1F
1)
#350
0-
0*
b10100 #
#400
1-
1*
b1100 "
b101 /
07
15
0T
0V
1>
0L
0D
0<
1'
1M
1%
1U
0K
0&
#450
0-
0*
b11010 #
#500
1-
1*
b110 !
b101 "
0$
b110 /
18
05
04
13
01
09
0:
0B
1L
1D
1V
0>
0S
0'
0M
1(
1I
0;
1'
1M
0G
0F
0)
#550
0-
0*
b1011 #
#600
1-
1*
b101 !
b111 "
b111 /
17
14
03
0H
0J
1A
1;
1<
1G
0(
1&
0'
0M
1K
#650
0-
0*
b1100 #
#700
1-
1*
b1111 !
b10 "
b1000 /
08
06
13
11
1T
1B
0L
0N
1@
1P
1R
0?
1H
1J
0A
0;
0G
1(
0O
0&
0Q
1M
0%
0U
1S
1O
1F
1)
#750
0-
0*
b10001 #
#800
1-
1*
b1000 !
b101 "
b1001 /
18
07
16
04
03
02
0D
1N
0@
0<
0=
0K
1%
1U
1&
1Q
0O
0S
0F
0)
#850
0-
0*
b1101 #
#900
1-
1*
b1101 !
b1101 "
1$
b1010 /
15
14
12
19
1:
0P
0R
1?
0H
0J
1A
0T
0V
1>
1S
0%
1G
1=
1O
0&
1;
1'
1%
1F
1)
#950
0-
0*
b11011 #
#1000
1-
1*
b11 !
b1010 "
0$
b1011 /
08
17
06
13
02
01
09
0:
1T
1V
0>
0C
0N
1@
1R
0?
1D
1H
1J
0A
0;
0G
0=
0O
1<
1K
0S
1&
0'
0F
0)
#1050
0-
0*
b1101 #
#1100
1-
1*
b0 !
1$
b1100 /
04
03
19
1:
1L
1N
0@
0H
0E
0<
0K
1'
0&
#1150
0-
0*
b1011 #
#1200
1-
1*
b110 !
b11 "
b1101 /
18
05
13
12
1P
1C
0L
0N
1@
0T
0B
1H
1E
1;
0(
0I
0%
1<
1=
1K
1%
0Q
1G
1O
#1250
0-
0*
b1010 #
#1300
1-
1*
b11 !
b1011 "
b1110 /
15
14
02
0P
0C
0H
0J
1A
1T
1B
0%
0U
1(
1I
0=
1&
1Q
0O
1%
1U
#1350
0-
0*
b1111 #
#1400
1-
1*
b10 !
b1110 "
b1111 /
08
16
04
0E
1P
1C
1J
0A
0;
0G
1=
0&
0Q
1O
0%
0U
0'
1S
1F
1)
#1450
0-
0*
b10001 #
#1500
1-
1*
b1111 !
b11 "
0$
b10000 /
18
06
05
14
12
11
09
0:
0J
1A
1E
1;
1G
0(
1'
#1550
0-
0*
b10010 #
#1600
1-
1*
b1010 !
b1100 "
b10001 /
08
07
16
15
04
02
0E
0T
0V
1>
1L
1N
0@
1J
0A
0;
0<
0=
0G
0K
1U
1&
1Q
0O
#1650
0-
0*
b10110 #
#1700
1-
1*
b1 "
b10010 /
18
06
05
1T
1V
0>
0P
0C
1H
1E
1(
0&
0S
1%
0F
0)
#1750
0-
0*
b1011 #
#1800
1-
1*
b1000 !
b1001 "
1$
b10011 /
15
03
19
1:
0L
0D
0T
0V
1>
1S
0%
0'
0(
0I
1;
1'
1G
1F
1)
#1850
0-
0*
b10010 #
#1900
1-
1*
b110 !
b110 "
0$
b10100 /
08
17
16
05
13
12
01
09
0:
0B
0R
1?
0N
1@
1V
0>
1C
1D
0H
0E
0S
1<
1K
1=
1O
1I
0;
0'
0G
1%
1&
0F
0)
#1950
0-
0*
b1100 #
#2000
1-
1*
b1100 !
b1010 "
1$
b10101 /
06
15
03
11
19
1:
0V
1>
1L
1N
0@
1B
1P
1R
0?
0=
0O
0&
0Q
0<
0K
1'
1S
1(
1&
1Q
0%
1F
1)
#2050
0-
0*
b10111 #
#2100
1-
1*
b1 !
b101 "
b10110 /
18
07
16
05
14
02
01
0B
0J
1A
1V
0>
0L
0D
1E
0'
0S
1;
1G
1'
0F
0)
#2150
0-
0*
b111 #
#2200
1-
1*
b1011 !
b1010 "
0$
b10111 /
08
17
06
15
13
11
09
0:
0V
1>
0N
1@
1B
0P
0C
1D
1H
1J
0A
0;
0G
0&
1<
1K
1S
1&
0'
1F
1)
#2250
0-
0*
b10101 #
#2300
1-
1*
b101 !
b1 "
1$
b11000 /
18
07
05
03
12
01
19
1:
0B
1P
1C
0D
1V
0>
1N
0@
0H
0J
1A
1G
0<
0K
0S
1;
1'
0F
0)
#2350
0-
0*
b111 #
#2400
1-
1*
b10 !
b1100 "
b11001 /
08
16
15
04
13
02
1L
1D
0E
1T
1B
1J
0A
0;
0G
1%
#2450
0-
0*
b1111 #
#2500
1-
1*
b1111 !
b1000 "
b11010 /
06
14
12
11
0T
0V
1>
1H
1E
1;
1<
1=
0(
0I
1S
1G
0&
0Q
0'
0M
1K
1O
1F
1)
#2550
0-
0*
b11000 #
#2600
1-
1*
b1100 "
b11011 /
16
0P
0R
1?
1&
1Q
#2650
0-
0*
b11100 #
#2700
1-
1*
b1001 !
b1001 "
0$
b11100 /
18
06
03
02
09
0:
0C
0L
0D
1R
0?
0H
0J
1A
0=
0O
1'
1M
1I
0<
0&
0K
0%
#2750
0-
0*
b10010 #
#2800
1-
1*
b111 !
b1 "
b11101 /
05
13
12
01
0B
1P
1C
1L
1D
1V
0>
0S
1<
1=
0'
0M
1K
1%
0Q
1O
0F
0)
#2850
0-
0*
b1000 #
#2900
1-
1*
b1100 !
b10 "
b11110 /
08
17
04
03
11
1T
1B
0E
1J
0A
0;
0<
0=
0G
1&
1Q
1'
1M
0K
0O
#2950
0-
0*
b1110 #
#3000
1-
1*
b111 !
b1101 "
b11111 /
18
07
16
15
14
13
01
0J
1A
0P
0R
1?
1E
1O
0&
1;
1<
1=
1G
0%
0U
1&
0'
0M
1K
1S
1F
1)
#3050
0-
0*
b10100 #
#3100
1-
1*
b1110 !
1$
b100000 /
04
11
19
1:
0T
0V
1>
1H
1J
0A
0G
0I
1%
1U
1G
#3150
0-
0*
b11100 #
