hw1/hw1_2/dump.vcd
$date
	Sat Feb 26 17:07:31 2022
$end
$version
	ModelSim Version 10.7c
$end
$timescale
	1ns
$end

$scope module cla_16b_bench $end
$var reg 17 ! A [16:0] $end
$var reg 17 " B [16:0] $end
$var reg 17 # Sumcalc [16:0] $end
$var reg 1 $ C_in $end
$var wire 1 % SUM [15] $end
$var wire 1 & SUM [14] $end
$var wire 1 ' SUM [13] $end
$var wire 1 ( SUM [12] $end
$var wire 1 ) SUM [11] $end
$var wire 1 * SUM [10] $end
$var wire 1 + SUM [9] $end
$var wire 1 , SUM [8] $end
$var wire 1 - SUM [7] $end
$var wire 1 . SUM [6] $end
$var wire 1 / SUM [5] $end
$var wire 1 0 SUM [4] $end
$var wire 1 1 SUM [3] $end
$var wire 1 2 SUM [2] $end
$var wire 1 3 SUM [1] $end
$var wire 1 4 SUM [0] $end
$var wire 1 5 CO $end
$var wire 1 6 clk $end
$var wire 1 7 rst $end
$var wire 1 8 err $end

$scope module my_clkrst $end
$var reg 1 9 clk $end
$var reg 1 : rst $end
$var wire 1 8 err $end
$var integer 32 ; cycle_count $end
$upscope $end

$scope module DUT $end
$var parameter 32 < N $end
$var wire 1 % sum [15] $end
$var wire 1 & sum [14] $end
$var wire 1 ' sum [13] $end
$var wire 1 ( sum [12] $end
$var wire 1 ) sum [11] $end
$var wire 1 * sum [10] $end
$var wire 1 + sum [9] $end
$var wire 1 , sum [8] $end
$var wire 1 - sum [7] $end
$var wire 1 . sum [6] $end
$var wire 1 / sum [5] $end
$var wire 1 0 sum [4] $end
$var wire 1 1 sum [3] $end
$var wire 1 2 sum [2] $end
$var wire 1 3 sum [1] $end
$var wire 1 4 sum [0] $end
$var wire 1 5 c_out $end
$var wire 1 = a [15] $end
$var wire 1 > a [14] $end
$var wire 1 ? a [13] $end
$var wire 1 @ a [12] $end
$var wire 1 A a [11] $end
$var wire 1 B a [10] $end
$var wire 1 C a [9] $end
$var wire 1 D a [8] $end
$var wire 1 E a [7] $end
$var wire 1 F a [6] $end
$var wire 1 G a [5] $end
$var wire 1 H a [4] $end
$var wire 1 I a [3] $end
$var wire 1 J a [2] $end
$var wire 1 K a [1] $end
$var wire 1 L a [0] $end
$var wire 1 M b [15] $end
$var wire 1 N b [14] $end
$var wire 1 O b [13] $end
$var wire 1 P b [12] $end
$var wire 1 Q b [11] $end
$var wire 1 R b [10] $end
$var wire 1 S b [9] $end
$var wire 1 T b [8] $end
$var wire 1 U b [7] $end
$var wire 1 V b [6] $end
$var wire 1 W b [5] $end
$var wire 1 X b [4] $end
$var wire 1 Y b [3] $end
$var wire 1 Z b [2] $end
$var wire 1 [ b [1] $end
$var wire 1 \ b [0] $end
$var wire 1 ] c_in $end
$var wire 1 ^ c1 $end
$var wire 1 _ c2 $end
$var wire 1 ` c3 $end
$var wire 1 a c4 $end

$scope module cla1 $end
$var parameter 32 b N $end
$var wire 1 1 sum [3] $end
$var wire 1 2 sum [2] $end
$var wire 1 3 sum [1] $end
$var wire 1 4 sum [0] $end
$var wire 1 ^ c_out $end
$var wire 1 I a [3] $end
$var wire 1 J a [2] $end
$var wire 1 K a [1] $end
$var wire 1 L a [0] $end
$var wire 1 Y b [3] $end
$var wire 1 Z b [2] $end
$var wire 1 [ b [1] $end
$var wire 1 \ b [0] $end
$var wire 1 ] c_in $end
$var wire 1 c c0 $end
$var wire 1 d c1 $end
$var wire 1 e c2 $end
$var wire 1 f c3 $end
$var wire 1 g c4 $end
$var wire 1 h g [3] $end
$var wire 1 i g [2] $end
$var wire 1 j g [1] $end
$var wire 1 k g [0] $end
$var wire 1 l p [3] $end
$var wire 1 m p [2] $end
$var wire 1 n p [1] $end
$var wire 1 o p [0] $end

$scope module fa1 $end
$var wire 1 4 s $end
$var wire 1 p c_out $end
$var wire 1 L a $end
$var wire 1 \ b $end
$var wire 1 c c_in $end
$var wire 1 q n1 $end
$var wire 1 r n2 $end
$var wire 1 s n3 $end

$scope module XO1 $end
$var wire 1 q out $end
$var wire 1 L in1 $end
$var wire 1 \ in2 $end
$upscope $end

$scope module XO2 $end
$var wire 1 4 out $end
$var wire 1 q in1 $end
$var wire 1 c in2 $end
$upscope $end

$scope module NA1 $end
$var wire 1 r out $end
$var wire 1 q in1 $end
$var wire 1 c in2 $end
$upscope $end

$scope module NA2 $end
$var wire 1 s out $end
$var wire 1 L in1 $end
$var wire 1 \ in2 $end
$upscope $end

$scope module NA3 $end
$var wire 1 p out $end
$var wire 1 r in1 $end
$var wire 1 s in2 $end
$upscope $end
$upscope $end

$scope module fa2 $end
$var wire 1 3 s $end
$var wire 1 t c_out $end
$var wire 1 K a $end
$var wire 1 [ b $end
$var wire 1 d c_in $end
$var wire 1 u n1 $end
$var wire 1 v n2 $end
$var wire 1 w n3 $end

$scope module XO1 $end
$var wire 1 u out $end
$var wire 1 K in1 $end
$var wire 1 [ in2 $end
$upscope $end

$scope module XO2 $end
$var wire 1 3 out $end
$var wire 1 u in1 $end
$var wire 1 d in2 $end
$upscope $end

$scope module NA1 $end
$var wire 1 v out $end
$var wire 1 u in1 $end
$var wire 1 d in2 $end
$upscope $end

$scope module NA2 $end
$var wire 1 w out $end
$var wire 1 K in1 $end
$var wire 1 [ in2 $end
$upscope $end

$scope module NA3 $end
$var wire 1 t out $end
$var wire 1 v in1 $end
$var wire 1 w in2 $end
$upscope $end
$upscope $end

$scope module fa3 $end
$var wire 1 2 s $end
$var wire 1 x c_out $end
$var wire 1 J a $end
$var wire 1 Z b $end
$var wire 1 e c_in $end
$var wire 1 y n1 $end
$var wire 1 z n2 $end
$var wire 1 { n3 $end

$scope module XO1 $end
$var wire 1 y out $end
$var wire 1 J in1 $end
$var wire 1 Z in2 $end
$upscope $end

$scope module XO2 $end
$var wire 1 2 out $end
$var wire 1 y in1 $end
$var wire 1 e in2 $end
$upscope $end

$scope module NA1 $end
$var wire 1 z out $end
$var wire 1 y in1 $end
$var wire 1 e in2 $end
$upscope $end

$scope module NA2 $end
$var wire 1 { out $end
$var wire 1 J in1 $end
$var wire 1 Z in2 $end
$upscope $end

$scope module NA3 $end
$var wire 1 x out $end
$var wire 1 z in1 $end
$var wire 1 { in2 $end
$upscope $end
$upscope $end

$scope module fa4 $end
$var wire 1 1 s $end
$var wire 1 | c_out $end
$var wire 1 I a $end
$var wire 1 Y b $end
$var wire 1 f c_in $end
$var wire 1 } n1 $end
$var wire 1 ~ n2 $end
$var wire 1 !! n3 $end

$scope module XO1 $end
$var wire 1 } out $end
$var wire 1 I in1 $end
$var wire 1 Y in2 $end
$upscope $end

$scope module XO2 $end
$var wire 1 1 out $end
$var wire 1 } in1 $end
$var wire 1 f in2 $end
$upscope $end

$scope module NA1 $end
$var wire 1 ~ out $end
$var wire 1 } in1 $end
$var wire 1 f in2 $end
$upscope $end

$scope module NA2 $end
$var wire 1 !! out $end
$var wire 1 I in1 $end
$var wire 1 Y in2 $end
$upscope $end

$scope module NA3 $end
$var wire 1 | out $end
$var wire 1 ~ in1 $end
$var wire 1 !! in2 $end
$upscope $end
$upscope $end
$upscope $end

$scope module cla2 $end
$var parameter 32 "! N $end
$var wire 1 - sum [3] $end
$var wire 1 . sum [2] $end
$var wire 1 / sum [1] $end
$var wire 1 0 sum [0] $end
$var wire 1 _ c_out $end
$var wire 1 E a [3] $end
$var wire 1 F a [2] $end
$var wire 1 G a [1] $end
$var wire 1 H a [0] $end
$var wire 1 U b [3] $end
$var wire 1 V b [2] $end
$var wire 1 W b [1] $end
$var wire 1 X b [0] $end
$var wire 1 ^ c_in $end
$var wire 1 #! c0 $end
$var wire 1 $! c1 $end
$var wire 1 %! c2 $end
$var wire 1 &! c3 $end
$var wire 1 '! c4 $end
$var wire 1 (! g [3] $end
$var wire 1 )! g [2] $end
$var wire 1 *! g [1] $end
$var wire 1 +! g [0] $end
$var wire 1 ,! p [3] $end
$var wire 1 -! p [2] $end
$var wire 1 .! p [1] $end
$var wire 1 /! p [0] $end

$scope module fa1 $end
$var wire 1 0 s $end
$var wire 1 0! c_out $end
$var wire 1 H a $end
$var wire 1 X b $end
$var wire 1 #! c_in $end
$var wire 1 1! n1 $end
$var wire 1 2! n2 $end
$var wire 1 3! n3 $end

$scope module XO1 $end
$var wire 1 1! out $end
$var wire 1 H in1 $end
$var wire 1 X in2 $end
$upscope $end

$scope module XO2 $end
$var wire 1 0 out $end
$var wire 1 1! in1 $end
$var wire 1 #! in2 $end
$upscope $end

$scope module NA1 $end
$var wire 1 2! out $end
$var wire 1 1! in1 $end
$var wire 1 #! in2 $end
$upscope $end

$scope module NA2 $end
$var wire 1 3! out $end
$var wire 1 H in1 $end
$var wire 1 X in2 $end
$upscope $end

$scope module NA3 $end
$var wire 1 0! out $end
$var wire 1 2! in1 $end
$var wire 1 3! in2 $end
$upscope $end
$upscope $end

$scope module fa2 $end
$var wire 1 / s $end
$var wire 1 4! c_out $end
$var wire 1 G a $end
$var wire 1 W b $end
$var wire 1 $! c_in $end
$var wire 1 5! n1 $end
$var wire 1 6! n2 $end
$var wire 1 7! n3 $end

$scope module XO1 $end
$var wire 1 5! out $end
$var wire 1 G in1 $end
$var wire 1 W in2 $end
$upscope $end

$scope module XO2 $end
$var wire 1 / out $end
$var wire 1 5! in1 $end
$var wire 1 $! in2 $end
$upscope $end

$scope module NA1 $end
$var wire 1 6! out $end
$var wire 1 5! in1 $end
$var wire 1 $! in2 $end
$upscope $end

$scope module NA2 $end
$var wire 1 7! out $end
$var wire 1 G in1 $end
$var wire 1 W in2 $end
$upscope $end

$scope module NA3 $end
$var wire 1 4! out $end
$var wire 1 6! in1 $end
$var wire 1 7! in2 $end
$upscope $end
$upscope $end

$scope module fa3 $end
$var wire 1 . s $end
$var wire 1 8! c_out $end
$var wire 1 F a $end
$var wire 1 V b $end
$var wire 1 %! c_in $end
$var wire 1 9! n1 $end
$var wire 1 :! n2 $end
$var wire 1 ;! n3 $end

$scope module XO1 $end
$var wire 1 9! out $end
$var wire 1 F in1 $end
$var wire 1 V in2 $end
$upscope $end

$scope module XO2 $end
$var wire 1 . out $end
$var wire 1 9! in1 $end
$var wire 1 %! in2 $end
$upscope $end

$scope module NA1 $end
$var wire 1 :! out $end
$var wire 1 9! in1 $end
$var wire 1 %! in2 $end
$upscope $end

$scope module NA2 $end
$var wire 1 ;! out $end
$var wire 1 F in1 $end
$var wire 1 V in2 $end
$upscope $end

$scope module NA3 $end
$var wire 1 8! out $end
$var wire 1 :! in1 $end
$var wire 1 ;! in2 $end
$upscope $end
$upscope $end

$scope module fa4 $end
$var wire 1 - s $end
$var wire 1 <! c_out $end
$var wire 1 E a $end
$var wire 1 U b $end
$var wire 1 &! c_in $end
$var wire 1 =! n1 $end
$var wire 1 >! n2 $end
$var wire 1 ?! n3 $end

$scope module XO1 $end
$var wire 1 =! out $end
$var wire 1 E in1 $end
$var wire 1 U in2 $end
$upscope $end

$scope module XO2 $end
$var wire 1 - out $end
$var wire 1 =! in1 $end
$var wire 1 &! in2 $end
$upscope $end

$scope module NA1 $end
$var wire 1 >! out $end
$var wire 1 =! in1 $end
$var wire 1 &! in2 $end
$upscope $end

$scope module NA2 $end
$var wire 1 ?! out $end
$var wire 1 E in1 $end
$var wire 1 U in2 $end
$upscope $end

$scope module NA3 $end
$var wire 1 <! out $end
$var wire 1 >! in1 $end
$var wire 1 ?! in2 $end
$upscope $end
$upscope $end
$upscope $end

$scope module cla3 $end
$var parameter 32 @! N $end
$var wire 1 ) sum [3] $end
$var wire 1 * sum [2] $end
$var wire 1 + sum [1] $end
$var wire 1 , sum [0] $end
$var wire 1 ` c_out $end
$var wire 1 A a [3] $end
$var wire 1 B a [2] $end
$var wire 1 C a [1] $end
$var wire 1 D a [0] $end
$var wire 1 Q b [3] $end
$var wire 1 R b [2] $end
$var wire 1 S b [1] $end
$var wire 1 T b [0] $end
$var wire 1 _ c_in $end
$var wire 1 A! c0 $end
$var wire 1 B! c1 $end
$var wire 1 C! c2 $end
$var wire 1 D! c3 $end
$var wire 1 E! c4 $end
$var wire 1 F! g [3] $end
$var wire 1 G! g [2] $end
$var wire 1 H! g [1] $end
$var wire 1 I! g [0] $end
$var wire 1 J! p [3] $end
$var wire 1 K! p [2] $end
$var wire 1 L! p [1] $end
$var wire 1 M! p [0] $end

$scope module fa1 $end
$var wire 1 , s $end
$var wire 1 N! c_out $end
$var wire 1 D a $end
$var wire 1 T b $end
$var wire 1 A! c_in $end
$var wire 1 O! n1 $end
$var wire 1 P! n2 $end
$var wire 1 Q! n3 $end

$scope module XO1 $end
$var wire 1 O! out $end
$var wire 1 D in1 $end
$var wire 1 T in2 $end
$upscope $end

$scope module XO2 $end
$var wire 1 , out $end
$var wire 1 O! in1 $end
$var wire 1 A! in2 $end
$upscope $end

$scope module NA1 $end
$var wire 1 P! out $end
$var wire 1 O! in1 $end
$var wire 1 A! in2 $end
$upscope $end

$scope module NA2 $end
$var wire 1 Q! out $end
$var wire 1 D in1 $end
$var wire 1 T in2 $end
$upscope $end

$scope module NA3 $end
$var wire 1 N! out $end
$var wire 1 P! in1 $end
$var wire 1 Q! in2 $end
$upscope $end
$upscope $end

$scope module fa2 $end
$var wire 1 + s $end
$var wire 1 R! c_out $end
$var wire 1 C a $end
$var wire 1 S b $end
$var wire 1 B! c_in $end
$var wire 1 S! n1 $end
$var wire 1 T! n2 $end
$var wire 1 U! n3 $end

$scope module XO1 $end
$var wire 1 S! out $end
$var wire 1 C in1 $end
$var wire 1 S in2 $end
$upscope $end

$scope module XO2 $end
$var wire 1 + out $end
$var wire 1 S! in1 $end
$var wire 1 B! in2 $end
$upscope $end

$scope module NA1 $end
$var wire 1 T! out $end
$var wire 1 S! in1 $end
$var wire 1 B! in2 $end
$upscope $end

$scope module NA2 $end
$var wire 1 U! out $end
$var wire 1 C in1 $end
$var wire 1 S in2 $end
$upscope $end

$scope module NA3 $end
$var wire 1 R! out $end
$var wire 1 T! in1 $end
$var wire 1 U! in2 $end
$upscope $end
$upscope $end

$scope module fa3 $end
$var wire 1 * s $end
$var wire 1 V! c_out $end
$var wire 1 B a $end
$var wire 1 R b $end
$var wire 1 C! c_in $end
$var wire 1 W! n1 $end
$var wire 1 X! n2 $end
$var wire 1 Y! n3 $end

$scope module XO1 $end
$var wire 1 W! out $end
$var wire 1 B in1 $end
$var wire 1 R in2 $end
$upscope $end

$scope module XO2 $end
$var wire 1 * out $end
$var wire 1 W! in1 $end
$var wire 1 C! in2 $end
$upscope $end

$scope module NA1 $end
$var wire 1 X! out $end
$var wire 1 W! in1 $end
$var wire 1 C! in2 $end
$upscope $end

$scope module NA2 $end
$var wire 1 Y! out $end
$var wire 1 B in1 $end
$var wire 1 R in2 $end
$upscope $end

$scope module NA3 $end
$var wire 1 V! out $end
$var wire 1 X! in1 $end
$var wire 1 Y! in2 $end
$upscope $end
$upscope $end

$scope module fa4 $end
$var wire 1 ) s $end
$var wire 1 Z! c_out $end
$var wire 1 A a $end
$var wire 1 Q b $end
$var wire 1 D! c_in $end
$var wire 1 [! n1 $end
$var wire 1 \! n2 $end
$var wire 1 ]! n3 $end

$scope module XO1 $end
$var wire 1 [! out $end
$var wire 1 A in1 $end
$var wire 1 Q in2 $end
$upscope $end

$scope module XO2 $end
$var wire 1 ) out $end
$var wire 1 [! in1 $end
$var wire 1 D! in2 $end
$upscope $end

$scope module NA1 $end
$var wire 1 \! out $end
$var wire 1 [! in1 $end
$var wire 1 D! in2 $end
$upscope $end

$scope module NA2 $end
$var wire 1 ]! out $end
$var wire 1 A in1 $end
$var wire 1 Q in2 $end
$upscope $end

$scope module NA3 $end
$var wire 1 Z! out $end
$var wire 1 \! in1 $end
$var wire 1 ]! in2 $end
$upscope $end
$upscope $end
$upscope $end

$scope module cla4 $end
$var parameter 32 ^! N $end
$var wire 1 % sum [3] $end
$var wire 1 & sum [2] $end
$var wire 1 ' sum [1] $end
$var wire 1 ( sum [0] $end
$var wire 1 a c_out $end
$var wire 1 = a [3] $end
$var wire 1 > a [2] $end
$var wire 1 ? a [1] $end
$var wire 1 @ a [0] $end
$var wire 1 M b [3] $end
$var wire 1 N b [2] $end
$var wire 1 O b [1] $end
$var wire 1 P b [0] $end
$var wire 1 ` c_in $end
$var wire 1 _! c0 $end
$var wire 1 `! c1 $end
$var wire 1 a! c2 $end
$var wire 1 b! c3 $end
$var wire 1 c! c4 $end
$var wire 1 d! g [3] $end
$var wire 1 e! g [2] $end
$var wire 1 f! g [1] $end
$var wire 1 g! g [0] $end
$var wire 1 h! p [3] $end
$var wire 1 i! p [2] $end
$var wire 1 j! p [1] $end
$var wire 1 k! p [0] $end

$scope module fa1 $end
$var wire 1 ( s $end
$var wire 1 l! c_out $end
$var wire 1 @ a $end
$var wire 1 P b $end
$var wire 1 _! c_in $end
$var wire 1 m! n1 $end
$var wire 1 n! n2 $end
$var wire 1 o! n3 $end

$scope module XO1 $end
$var wire 1 m! out $end
$var wire 1 @ in1 $end
$var wire 1 P in2 $end
$upscope $end

$scope module XO2 $end
$var wire 1 ( out $end
$var wire 1 m! in1 $end
$var wire 1 _! in2 $end
$upscope $end

$scope module NA1 $end
$var wire 1 n! out $end
$var wire 1 m! in1 $end
$var wire 1 _! in2 $end
$upscope $end

$scope module NA2 $end
$var wire 1 o! out $end
$var wire 1 @ in1 $end
$var wire 1 P in2 $end
$upscope $end

$scope module NA3 $end
$var wire 1 l! out $end
$var wire 1 n! in1 $end
$var wire 1 o! in2 $end
$upscope $end
$upscope $end

$scope module fa2 $end
$var wire 1 ' s $end
$var wire 1 p! c_out $end
$var wire 1 ? a $end
$var wire 1 O b $end
$var wire 1 `! c_in $end
$var wire 1 q! n1 $end
$var wire 1 r! n2 $end
$var wire 1 s! n3 $end

$scope module XO1 $end
$var wire 1 q! out $end
$var wire 1 ? in1 $end
$var wire 1 O in2 $end
$upscope $end

$scope module XO2 $end
$var wire 1 ' out $end
$var wire 1 q! in1 $end
$var wire 1 `! in2 $end
$upscope $end

$scope module NA1 $end
$var wire 1 r! out $end
$var wire 1 q! in1 $end
$var wire 1 `! in2 $end
$upscope $end

$scope module NA2 $end
$var wire 1 s! out $end
$var wire 1 ? in1 $end
$var wire 1 O in2 $end
$upscope $end

$scope module NA3 $end
$var wire 1 p! out $end
$var wire 1 r! in1 $end
$var wire 1 s! in2 $end
$upscope $end
$upscope $end

$scope module fa3 $end
$var wire 1 & s $end
$var wire 1 t! c_out $end
$var wire 1 > a $end
$var wire 1 N b $end
$var wire 1 a! c_in $end
$var wire 1 u! n1 $end
$var wire 1 v! n2 $end
$var wire 1 w! n3 $end

$scope module XO1 $end
$var wire 1 u! out $end
$var wire 1 > in1 $end
$var wire 1 N in2 $end
$upscope $end

$scope module XO2 $end
$var wire 1 & out $end
$var wire 1 u! in1 $end
$var wire 1 a! in2 $end
$upscope $end

$scope module NA1 $end
$var wire 1 v! out $end
$var wire 1 u! in1 $end
$var wire 1 a! in2 $end
$upscope $end

$scope module NA2 $end
$var wire 1 w! out $end
$var wire 1 > in1 $end
$var wire 1 N in2 $end
$upscope $end

$scope module NA3 $end
$var wire 1 t! out $end
$var wire 1 v! in1 $end
$var wire 1 w! in2 $end
$upscope $end
$upscope $end

$scope module fa4 $end
$var wire 1 % s $end
$var wire 1 x! c_out $end
$var wire 1 = a $end
$var wire 1 M b $end
$var wire 1 b! c_in $end
$var wire 1 y! n1 $end
$var wire 1 z! n2 $end
$var wire 1 {! n3 $end

$scope module XO1 $end
$var wire 1 y! out $end
$var wire 1 = in1 $end
$var wire 1 M in2 $end
$upscope $end

$scope module XO2 $end
$var wire 1 % out $end
$var wire 1 y! in1 $end
$var wire 1 b! in2 $end
$upscope $end

$scope module NA1 $end
$var wire 1 z! out $end
$var wire 1 y! in1 $end
$var wire 1 b! in2 $end
$upscope $end

$scope module NA2 $end
$var wire 1 {! out $end
$var wire 1 = in1 $end
$var wire 1 M in2 $end
$upscope $end

$scope module NA3 $end
$var wire 1 x! out $end
$var wire 1 z! in1 $end
$var wire 1 {! in2 $end
$upscope $end
$upscope $end
$upscope $end
$upscope $end
$upscope $end
$enddefinitions $end
#0
$dumpvars
b11010100100100 !
b101111010000001 "
bx #
1$
19
1:
b10000 <
b100 b
b100 "!
b100 @!
b100 ^!
b1 ;
04
13
12
01
00
1/
0.
1-
1,
1+
0*
0)
1(
0'
0&
1%
05
16
17
z8
0^
0_
1`
0a
1c
1d
0e
0f
0g
0k
0j
0i
0h
1o
0n
1m
0l
1q
0r
1s
0u
1v
1w
1y
1z
1{
0}
1~
1!!
0#!
0$!
0%!
0&!
0'!
0+!
0*!
0)!
0(!
0/!
1.!
0-!
1,!
01!
12!
13!
15!
16!
17!
09!
1:!
1;!
1=!
1>!
1?!
0A!
0B!
0C!
1D!
1E!
0I!
0H!
1G!
0F!
1M!
1L!
1K!
1J!
1O!
1P!
1Q!
1S!
1T!
1U!
0W!
1X!
0Y!
1[!
0\!
1]!
1_!
1`!
1a!
1b!
0c!
1g!
0f!
0e!
0d!
1k!
1j!
1i!
0h!
0m!
1n!
0o!
1q!
0r!
1s!
1u!
0v!
1w!
0y!
1z!
1{!
1]
1\
0[
0Z
0Y
0X
0W
0V
1U
0T
1S
1R
1Q
1P
0O
1N
0M
0L
0K
1J
0I
0H
1G
0F
0E
1D
0C
1B
0A
1@
1?
0>
0=
1p
0t
0x
0|
00!
04!
08!
0<!
0N!
0R!
1V!
1Z!
1l!
1p!
1t!
0x!
$end
#50
09
06
b1001001110100110 #
#100
19
16
b101011001100011 !
b111101100001101 "
b10 ;
1Z
1Y
0U
1T
0R
1O
1L
1K
0J
1F
0D
1C
0?
1>
0u!
0w!
1e!
0S!
0U!
1H!
19!
1-!
1u
1n
0q
0s
1k
1W!
1Y!
0G!
0=!
0,!
1}
1l
11
0-
0V!
1*
14
1r
1e
1f
03
0v
1.
1C!
1R!
0+
1&
1v!
0*
0X!
1t
01
0~
02
0z
1x
1|
1V!
1g
1^
1#!
10
#150
09
06
b1101000101110001 #
#200
19
16
b1000010001100101 !
b101001000010010 "
b11 ;
0\
1[
0Z
0Y
1X
0T
0Q
0O
0K
1J
0C
0@
0>
1=
1y!
1h!
1u!
1w!
0e!
1m!
1o!
0g!
1S!
1U!
0H!
0q!
0j!
0[!
0J!
0O!
0M!
11!
1/!
0}
0l
1q
1s
0k
0p
04
0r
11
1~
1$!
1%!
1&!
00
02!
0,
1)
1\!
0a!
0b!
1'
1r!
0C!
0D!
0R!
1+
0l!
0(
0n!
0t!
1l!
0)
1*
1X!
0p!
0Z!
10!
1-
0.
0:!
0/
06!
0|
1p
14!
18!
0V!
0E!
0g
0^
0`
0_!
0#!
10
12!
0$!
0%!
0&!
1(
1n!
0`!
0'
0l!
0-
1.
1:!
1/
16!
00!
04!
08!
#201
0:
07
#250
09
06
b1101011001111000 #
#300
19
16
b1100110100001101 !
b1111000101110110 "
b100 ;
1Z
1W
1V
1T
0S
1O
1M
1I
0G
0F
1D
1A
1>
0u!
0w!
1e!
1[!
1J!
0Q!
1I!
1}
1l
0y!
0{!
1d!
1q!
1j!
0S!
0L!
1M!
0y
0{
1i
12
1z
0+
1'
1x!
0%
01
0~
1B!
1N!
1)
1b!
1t!
0&
1%
1+
1|
1c!
1g
1^
1a
15
1#!
00
02!
1$!
1%!
1&!
1-
0.
0:!
0/
06!
10!
14!
18!
#350
09
06
b11011111010000100 #
#400
19
16
b101011111101101 !
b1111011110001100 "
b101 ;
0[
1Y
0X
0W
0V
1U
1S
1R
1G
1F
1E
1C
0A
1@
0=
1y!
1{!
0d!
0m!
0o!
1g!
0[!
0J!
0U!
1H!
0?!
1(!
0W!
0Y!
1G!
1L!
1,!
01!
0/!
0}
0!!
1h
0u
0n
0e
13
1v
11
1~
0$!
0%!
0&!
10
12!
1V!
0*
1<!
1C!
1D!
1R!
1`!
1a!
1l!
0(
0x!
0%
0z!
1x!
1&
0'
0r!
1*
00!
0-
1.
1:!
1/
16!
0t
02
04!
08!
1p!
1'!
1_
1A!
1,
#450
09
06
b10100111101111010 #
#500
19
16
b10010011000110 !
b1000010011000101 "
0$
b110 ;
1\
0Y
1V
0T
0S
0P
0O
0N
0L
1K
0I
0G
0D
0C
0@
1?
0>
0]
0c
0i!
0k!
0L!
0M!
05!
0.!
0l
1u
1n
1w!
0e!
1o!
0g!
1U!
0H!
1Q!
0I!
09!
0;!
1)!
1!!
0h
0|
1&!
18!
0.
0B!
0N!
0C!
0R!
0`!
0a!
0l!
0b!
0t!
03
0v
0/
14
1r
0d
13
1v
0p
1%
1z!
0&
1'
1r!
0*
0+
1-
0p!
0x!
0g
0c!
0a
0^
0#!
05
00
#550
09
06
b1010100110001011 #
#600
19
16
b1111011111100101 !
b111001001110111 "
b111 ;
1[
1X
1W
0U
1S
0R
1P
1O
1N
0M
1L
0K
1G
1D
1C
1@
1>
1=
0w!
1e!
0o!
1g!
0U!
1H!
1O!
1M!
07!
1*!
0q
0s
1k
1i!
0q!
0s!
1f!
1k!
1W!
1Y!
0G!
1L!
1=!
1?!
0(!
1.!
11!
1/!
10
0<!
0-
0>!
0V!
1*
1p!
0'
1d
1e
1p
04
1%!
14!
1B!
0,
0P!
1C!
1R!
1`!
1a!
1l!
1b!
1t!
0%
0z!
1&
1'
0*
0X!
1N!
1+
1.
12
03
0v
1<!
1t
1V!
1x!
1c!
1a
15
#650
09
06
b10110101001011100 #
#700
19
16
b1101101110001111 !
b110100111110010 "
b1000 ;
0\
0Z
1U
1T
0S
1Q
0P
1K
1I
0G
0F
0B
1A
0?
1q!
1s!
0f!
0]!
1F!
0W!
0K!
19!
1;!
0)!
15!
17!
0*!
1}
1l
0u
0w
1j
1m!
1o!
0g!
1J!
1S!
1U!
0H!
0O!
0Q!
1I!
0=!
0?!
1(!
1y
1{
0i
1q
1s
0k
0d
0p
14
0x
02
0z
1-
1>!
1,
1P!
0R!
0+
0T!
0`!
0a!
0l!
1(
1v
01
0~
0%!
0&!
04!
1/
08!
0D!
1*
1X!
1Z!
0p!
0V!
0)
0-
1|
0&
1R!
1x
1E!
1g
1^
1`
1_!
1#!
00
02!
1$!
1%!
1&!
0(
0n!
1`!
1a!
1&
0'
0r!
1l!
1-
0.
0:!
0/
06!
10!
14!
18!
1p!
#750
09
06
b10100010110000001 #
#800
19
16
b111101011101000 !
b100111011000101 "
b1001 ;
1\
0[
1Z
0X
0W
0T
1S
1R
0O
0L
0K
0J
1G
1F
0D
1?
0=
0y!
0h!
0M!
09!
0;!
1)!
0n
1W!
1K!
0S!
0U!
1H!
1Q!
0I!
01!
0/!
1w
0j
0e
0f
0t
0$!
0%!
10
12!
0B!
0N!
1T!
1D!
0*
0X!
1:!
1%
1z!
0x!
1V!
1)
00!
1/
16!
11
1~
12
1z
0x
0|
04!
0c!
0g
0^
0a
05
0#!
00
#850
09
06
b1100100110101101 #
#900
19
16
b10100010111101 !
b101100000101101 "
1$
b1010 ;
1Y
1W
0V
0U
0S
0R
1P
1L
1J
1H
0F
0C
0@
0>
1]
1c
1u!
1w!
0e!
0L!
0-!
11!
1/!
0y
0{
1i
0q
0s
1k
0W!
0K!
1U!
0H!
1=!
1?!
0(!
1;!
0)!
05!
07!
1*!
0}
0!!
1h
1|
01
1%!
14!
0/
0&!
08!
0<!
0C!
0R!
0D!
1X!
1p
1f
1x
02
10
0t!
0&
0v!
1d
13
1t!
11
0V!
0)
1.
1g
0'!
0_
1^
1#!
0A!
0,
00
02!
1$!
1/
10!
#950
09
06
b1000000011101011 #
#1000
19
16
b110001001100011 !
b1000011100001010 "
0$
b1011 ;
0\
1[
0Z
0W
1T
1S
1R
0Q
0P
0N
1M
1K
0J
0I
0H
1F
0E
1C
0A
1>
0]
0c
0J!
0U!
1H!
0=!
0,!
19!
1-!
01!
0/!
1}
1!!
0h
0m
0w
1j
1y!
1h!
0m!
0k!
1]!
0F!
1W!
1K!
1L!
1O!
1M!
15!
17!
0*!
1{
0i
1n
1q
1s
0k
0d
0p
0f
0x
0%!
04!
0/
06!
1,
1D!
1*
0Z!
0`!
0a!
0b!
1(
1n!
1e
1t
0|
0$!
10
12!
0-
1C!
1R!
0*
0X!
00!
1/
16!
12
0l!
1&
1v!
1'
1r!
1)
03
0p!
0t!
1V!
0g
0E!
0`
0^
0#!
0_!
0(
00
#1050
09
06
b1110100101101101 #
#1100
19
16
b10000100100000 !
b100010110101010 "
1$
b1100 ;
1W
1U
0S
1N
0M
0L
0K
0F
1D
0C
0>
1]
1c
0L!
0O!
0Q!
1I!
09!
0-!
1u
1w
0j
0q
0o
0y!
0h!
1U!
0H!
1=!
1,!
05!
07!
1*!
1%!
14!
0/
1-
0C!
0D!
0R!
0%
0e
0t
13
1B!
1N!
0,
1+
02
0)
1*
1X!
0V!
#1150
09
06
b110011011001011 #
#1200
19
16
b11111010010110 !
b1011100000010011 "
b1101 ;
1\
0Y
1X
0W
0U
0T
0R
1Q
1P
1O
0N
1M
1K
1J
1H
0G
1E
0D
1C
1B
1A
1@
0o!
1g!
0]!
1F!
1S!
1L!
0M!
0.!
03!
1+!
1y
1m
0u
0w
1j
1y!
1h!
0u!
0i!
0q!
0s!
1f!
1k!
1J!
1Q!
0I!
17!
0*!
1/!
0}
0l
1q
1o
1d
04
0r
01
0%!
04!
0B!
0N!
1p!
0'
0&
1%
1e
1f
1t
1$!
10!
1Z!
1`!
1a!
1l!
1&
1'
1/
11
0z
0.
1p
1x
1E!
1`
1_!
1(
#1250
09
06
b1111011010101010 #
